@startuml
title 少女大飛行~LogoSceneシーケンス図~

'Class'
participant SceneManager
participant SceneFactory
box "LogoScene" #Lightblue
participant LogoScene
participant LogoBackground
end box
participant GameLib

==生成==
SceneManager-> SceneFactory : CreateScene(SCENE_ID) : Scene*
activate SceneFactory
create LogoScene
SceneFactory-> LogoScene : <<生成>>
create LogoBackground
LogoScene -> LogoBackground : <<生成>>
SceneManager <-- SceneFactory : 生成したSceneのポインタ
deactivate SceneFactory

==制御==
SceneManager -> LogoScene : Control() :SCENE_ID
activate LogoScene
LogoScene -> Background : Control() : bool
activate LogoBackground
alt FADE_IN
opt アルファ値が0xffになる
note over LogoBackground
状態を
DISPLAYへ
end note
end
else DISPLAY
opt 一定時間たつ
note over LogoBackground
状態を
FADE_OUTへ
end note
end
else FADE_OUT
opt アルファ値が0x00になる
note over LogoBackground
戻り値をtrueにする
end note
end
end
LogoScene <-- LogoBackground :  true or false
deactivate LogoBackground
opt BackgroundのControlの戻り値がtrue
SceneManager <-- LogoScene : タイトルシーンへ
end
opt Zキーが押された場合
SceneManager <-- LogoScene : タイトルシーンへ
end
SceneManager <-- LogoScene : ロゴシーン継続
deactivate LogoScene

 ==描画==
SceneManager ->> LogoScene : Draw() : void
activate LogoScene
LogoScene ->> LogoBackground : Draw() : void
activate LogoBackground
Background ->> GameLib : アルファ値を設定する
deactivate LogoBackground
deactivate LogoScene

@enduml
