@startuml
 title 少女大飛行クラス図~Player~

'Class'
class Player{
   -m_pGameDataManager : GameDataManager
   +Control()    : void
   +Draw()       : void
   -Run()        : virtual void
   -Render()     : virtual void
 }

class BulletManager{
   +Control() :  void
   +Draw() : void
   +CreateBullet(D3DXVECTOR2)
}

class Bullet{
  +Control()    : void
  +Draw()       : void
  -Run()        : virtual void
  -Render()     : virtual void
}

class PlayerBit{
  +Control()    : void
  +Draw()       : void
  -Run()        : virtual void
  -Render()     : virtual void
 }

'Interrelationship'
Player *-r- BulletManager
Player *-d- PlayerBit

BulletManager *--> Bullet

@enduml
